# 3ds Max Wavefront OBJ Exporter v0.97b - (c)2007 guruware
# File Created: 06.12.2019 10:49:18

newmtl wire_026026026
	Ns 32
	d 1
	Tr 0
	Tf 1 1 1
	illum 2
	Ka 0.1020 0.1020 0.1020
	Kd 0.1020 0.1020 0.1020
	Ks 0.3500 0.3500 0.3500
