# 3ds Max Wavefront OBJ Exporter v0.97b - (c)2007 guruware
# File Created: 29.11.2019 14:05:32

newmtl wire_135006006
	Ns 32
	d 1
	Tr 0
	Tf 1 1 1
	illum 2
	Ka 0.5294 0.0235 0.0235
	Kd 0.5294 0.0235 0.0235
	Ks 0.3500 0.3500 0.3500
